{
  "medkit_small": {
    "name": "Small medkit",
    "description": "Heal superficial wounds. Don't count on it",
    "amount": 5
  },

  "medkit_large": {
    "name": "Large Medkit",
    "description": "Heal large wounds. You'll need it",
    "amount": 10
  },

  "medkit_full": {
    "name": "Full-life Medkit",
    "description": "Praise be",
    "amount": 999
  }
}
